#set yrange [0:1]

pos=0

bind "k" "isexist= system(sprintf('file out/%i.out | grep cannot',pos+1));if(strlen(isexist) == 0) pos=pos+1; plot sprintf('out/%i.out',pos) using 0:1 with lines title sprintf('num %i',pos)"
bind "j" "isexist= system(sprintf('file out/%i.out | grep cannot',pos-1));if(strlen(isexist) == 0) pos=pos-1; plot sprintf('out/%i.out',pos) using 0:1 with lines title sprintf('num %i',pos)"

plot sprintf('out/%i.out',pos) using 0:1 with lines title sprintf('num %i',pos)
pause -1