

#set yrange [0:1]

pos=0

bind "k" "isexist= system(sprintf('file out/%i.out | grep cannot',pos+1));if(strlen(isexist) == 0) pos=pos+1; plot for [j=1:10] sprintf('out/%i.out',pos) u 0:j w l title sprintf('%i %i',pos,j)
bind "j" "isexist= system(sprintf('file out/%i.out | grep cannot',pos-1));if(strlen(isexist) == 0) pos=pos-1; plot for [j=1:10] sprintf('out/%i.out',pos) u 0:j w l title sprintf('%i %i',pos,j)

plot for [j=1:10] sprintf('out/%i.out',pos) u 0:j w l title sprintf('%i %i',pos,j)
pause -1